…
## Station Trends

### Popular start stations by user type

``` r
popular_stations <- all_trips_v2 %>% count(start_station_name, member_casual)

print(popular_stations)
```

    ## # A tibble: 1,383 × 3
    ##    start_station_name         member_casual     n
    ##    <chr>                      <chr>         <int>
    ##  1 2112 W Peterson Ave        casual          311
    ##  2 2112 W Peterson Ave        member          550
    ##  3 63rd St Beach              casual         1580
    ##  4 63rd St Beach              member          889
    ##  5 900 W Harrison St          casual         1319
    ##  6 900 W Harrison St          member         2517
    ##  7 Aberdeen St & Jackson Blvd casual         2313
    ##  8 Aberdeen St & Jackson Blvd member         6097
    ##  9 Aberdeen St & Monroe St    casual         1726
    ## 10 Aberdeen St & Monroe St    member         4573
    ## # … with 1,373 more rows

### Popular end stations by user type

``` r
end_stations <- all_trips_v2 %>% count(end_station_name, member_casual)

print(end_stations)
```

    ## # A tibble: 1,396 × 3
    ##    end_station_name           member_casual     n
    ##    <chr>                      <chr>         <int>
    ##  1 2112 W Peterson Ave        casual          315
    ##  2 2112 W Peterson Ave        member          653
    ##  3 63rd St Beach              casual         1521
    ##  4 63rd St Beach              member          963
    ##  5 900 W Harrison St          casual         1250
    ##  6 900 W Harrison St          member         2515
    ##  7 Aberdeen St & Jackson Blvd casual         2269
    ##  8 Aberdeen St & Jackson Blvd member         6009
    ##  9 Aberdeen St & Monroe St    casual         1664
    ## 10 Aberdeen St & Monroe St    member         4852
    ## # … with 1,386 more rows
…
